module gitlab.com/gitlab-com/runbooks/alertmanager/templates

go 1.24.1

require github.com/prometheus/alertmanager v0.28.1

require (
	github.com/beorn7/perks v1.0.1 // indirect
	github.com/cespare/xxhash/v2 v2.3.0 // indirect
	github.com/davecgh/go-spew v1.1.2-0.20180830191138-d8f796af33cc // indirect
	github.com/munnerz/goautoneg v0.0.0-20191010083416-a7dc8b61c822 // indirect
	github.com/pmezard/go-difflib v1.0.1-0.20181226105442-5d4384ee4fb2 // indirect
	github.com/prometheus/client_golang v1.20.5 // indirect
	github.com/prometheus/client_model v0.6.1 // indirect
	github.com/prometheus/common v0.61.0 // indirect
	github.com/prometheus/procfs v0.15.1 // indirect
	github.com/shurcooL/httpfs v0.0.0-20230704072500-f1e31cf0ba5c // indirect
	github.com/shurcooL/vfsgen v0.0.0-20230704071429-0000e147ea92 // indirect
	golang.org/x/sys v0.28.0 // indirect
	golang.org/x/text v0.21.0 // indirect
	google.golang.org/protobuf v1.35.2 // indirect
)
