{
      "__inputs": [ ],
      "__requires": [ ],
      "annotations": {
         "list": [ ]
      },
      "editable": true,
      "gnetId": null,
      "graphTooltip": 1,
      "hideControls": false,
      "id": null,
      "links": [ ],
      "panels": [
         {
            "collapse": false,
            "collapsed": false,
            "gridPos": {
               "h": 1,
               "w": 24,
               "x": 0,
               "y": 0
            },
            "id": 2,
            "panels": [ ],
            "repeat": null,
            "repeatIteration": null,
            "repeatRowId": null,
            "showTitle": true,
            "title": "CPU",
            "titleSize": "h6",
            "type": "row"
         },
         {
            "aliasColors": { },
            "bars": false,
            "dashLength": 10,
            "dashes": false,
            "datasource": "$PROMETHEUS_DS",
            "decimals": 0,
            "description": "",
            "fill": 10,
            "fillGradient": 0,
            "gridPos": {
               "h": 7,
               "w": 12,
               "x": 0,
               "y": 1
            },
            "id": 3,
            "legend": {
               "alignAsTable": true,
               "avg": true,
               "current": true,
               "hideEmpty": true,
               "max": true,
               "min": true,
               "rightSide": false,
               "show": true,
               "sideWidth": null,
               "total": false,
               "values": true
            },
            "lines": true,
            "linewidth": 2,
            "links": [ ],
            "nullPointMode": "null",
            "percentage": false,
            "pointradius": 5,
            "points": false,
            "renderer": "flot",
            "repeat": null,
            "seriesOverrides": [ ],
            "spaceLength": 10,
            "stableId": "node-cpu-usage",
            "stack": true,
            "steppedLine": false,
            "targets": [
               {
                  "expr": "(\n  (1 - sum without (mode) (rate(node_cpu_seconds_total{mode=~\"idle|iowait|steal\", instance=\"$instance\"}[$__rate_interval])))\n  / ignoring(cpu) group_left\n  count without (cpu, mode) (node_cpu_seconds_total{mode=\"idle\", instance=\"$instance\"})\n)\n",
                  "format": "time_series",
                  "interval": "1m",
                  "intervalFactor": 1,
                  "legendFormat": "CPU #{{cpu}}",
                  "refId": "A"
               }
            ],
            "thresholds": [ ],
            "timeFrom": null,
            "timeShift": null,
            "title": "CPU Usage",
            "tooltip": {
               "shared": true,
               "sort": 2,
               "value_type": "individual"
            },
            "type": "graph",
            "xaxis": {
               "buckets": null,
               "mode": "time",
               "name": null,
               "show": true,
               "values": [ ]
            },
            "yaxes": [
               {
                  "format": "percentunit",
                  "label": "",
                  "logBase": 1,
                  "max": 1,
                  "min": 0,
                  "show": true
               },
               {
                  "format": "short",
                  "label": null,
                  "logBase": 1,
                  "max": 1,
                  "min": 0,
                  "show": false
               }
            ]
         },
         {
            "aliasColors": { },
            "bars": false,
            "dashLength": 10,
            "dashes": false,
            "datasource": "$PROMETHEUS_DS",
            "decimals": 0,
            "description": "",
            "fill": 0,
            "fillGradient": 0,
            "gridPos": {
               "h": 7,
               "w": 12,
               "x": 12,
               "y": 1
            },
            "id": 4,
            "legend": {
               "alignAsTable": true,
               "avg": true,
               "current": true,
               "hideEmpty": true,
               "max": true,
               "min": true,
               "rightSide": false,
               "show": true,
               "sideWidth": null,
               "total": false,
               "values": true
            },
            "lines": true,
            "linewidth": 2,
            "links": [ ],
            "nullPointMode": "null",
            "percentage": false,
            "pointradius": 5,
            "points": false,
            "renderer": "flot",
            "repeat": null,
            "seriesOverrides": [ ],
            "spaceLength": 10,
            "stableId": "node-load-average",
            "stack": false,
            "steppedLine": false,
            "targets": [
               {
                  "expr": "node_load1{instance=\"$instance\"}",
                  "format": "time_series",
                  "interval": "1m",
                  "intervalFactor": 1,
                  "legendFormat": "1m load average",
                  "refId": "A"
               },
               {
                  "expr": "node_load5{instance=\"$instance\"}",
                  "format": "time_series",
                  "interval": "1m",
                  "intervalFactor": 1,
                  "legendFormat": "5m load average",
                  "refId": "B"
               },
               {
                  "expr": "node_load15{instance=\"$instance\"}",
                  "format": "time_series",
                  "interval": "1m",
                  "intervalFactor": 1,
                  "legendFormat": "15m load average",
                  "refId": "C"
               },
               {
                  "expr": "count(node_cpu_seconds_total{instance=\"$instance\", mode=\"idle\"})",
                  "format": "time_series",
                  "interval": "1m",
                  "intervalFactor": 1,
                  "legendFormat": "logical cores",
                  "refId": "D"
               }
            ],
            "thresholds": [ ],
            "timeFrom": null,
            "timeShift": null,
            "title": "Load Average",
            "tooltip": {
               "shared": true,
               "sort": 2,
               "value_type": "individual"
            },
            "type": "graph",
            "xaxis": {
               "buckets": null,
               "mode": "time",
               "name": null,
               "show": true,
               "values": [ ]
            },
            "yaxes": [
               {
                  "format": "short",
                  "label": "",
                  "logBase": 1,
                  "max": null,
                  "min": 0,
                  "show": true
               },
               {
                  "format": "short",
                  "label": null,
                  "logBase": 1,
                  "max": 1,
                  "min": 0,
                  "show": false
               }
            ]
         },
         {
            "collapse": false,
            "collapsed": false,
            "gridPos": {
               "h": 1,
               "w": 24,
               "x": 0,
               "y": 8
            },
            "id": 5,
            "panels": [ ],
            "repeat": null,
            "repeatIteration": null,
            "repeatRowId": null,
            "showTitle": true,
            "title": "Memory",
            "titleSize": "h6",
            "type": "row"
         },
         {
            "aliasColors": { },
            "bars": false,
            "dashLength": 10,
            "dashes": false,
            "datasource": "$PROMETHEUS_DS",
            "decimals": 0,
            "description": "",
            "fill": 10,
            "fillGradient": 0,
            "gridPos": {
               "h": 7,
               "w": 18,
               "x": 0,
               "y": 9
            },
            "id": 6,
            "legend": {
               "alignAsTable": true,
               "avg": true,
               "current": true,
               "hideEmpty": true,
               "max": true,
               "min": true,
               "rightSide": false,
               "show": true,
               "sideWidth": null,
               "total": false,
               "values": true
            },
            "lines": true,
            "linewidth": 2,
            "links": [ ],
            "nullPointMode": "null",
            "percentage": false,
            "pointradius": 5,
            "points": false,
            "renderer": "flot",
            "repeat": null,
            "seriesOverrides": [ ],
            "spaceLength": 10,
            "stableId": "node-memory-usage",
            "stack": true,
            "steppedLine": false,
            "targets": [
               {
                  "expr": "(\n  node_memory_MemTotal_bytes{instance=\"$instance\"}\n  -\n  node_memory_MemFree_bytes{instance=\"$instance\"}\n  -\n  node_memory_Buffers_bytes{instance=\"$instance\"}\n  -\n  node_memory_Cached_bytes{instance=\"$instance\"}\n)\n",
                  "format": "time_series",
                  "interval": "1m",
                  "intervalFactor": 1,
                  "legendFormat": "memory used",
                  "refId": "A"
               },
               {
                  "expr": "node_memory_Buffers_bytes{instance=\"$instance\"}",
                  "format": "time_series",
                  "interval": "1m",
                  "intervalFactor": 1,
                  "legendFormat": "memory buffers",
                  "refId": "B"
               },
               {
                  "expr": "node_memory_Cached_bytes{instance=\"$instance\"}",
                  "format": "time_series",
                  "interval": "1m",
                  "intervalFactor": 1,
                  "legendFormat": "memory cached",
                  "refId": "C"
               },
               {
                  "expr": "node_memory_MemFree_bytes{instance=\"$instance\"}",
                  "format": "time_series",
                  "interval": "1m",
                  "intervalFactor": 1,
                  "legendFormat": "memory free",
                  "refId": "D"
               }
            ],
            "thresholds": [ ],
            "timeFrom": null,
            "timeShift": null,
            "title": "Memory Usage",
            "tooltip": {
               "shared": true,
               "sort": 2,
               "value_type": "individual"
            },
            "type": "graph",
            "xaxis": {
               "buckets": null,
               "mode": "time",
               "name": null,
               "show": true,
               "values": [ ]
            },
            "yaxes": [
               {
                  "format": "bytes",
                  "label": "",
                  "logBase": 1,
                  "max": null,
                  "min": 0,
                  "show": true
               },
               {
                  "format": "short",
                  "label": null,
                  "logBase": 1,
                  "max": 1,
                  "min": 0,
                  "show": false
               }
            ]
         },
         {
            "datasource": "$PROMETHEUS_DS",
            "description": "",
            "fieldConfig": {
               "defaults": {
                  "decimals": 0,
                  "displayName": "Memory Usage",
                  "links": [ ],
                  "mappings": [ ],
                  "max": 100,
                  "min": 0,
                  "thresholds": {
                     "mode": "absolute",
                     "steps": [
                        {
                           "color": "green",
                           "value": null
                        },
                        {
                           "color": "orange",
                           "value": 80
                        },
                        {
                           "color": "red",
                           "value": 90
                        }
                     ]
                  },
                  "unit": "percent"
               }
            },
            "gridPos": {
               "h": 7,
               "w": 6,
               "x": 18,
               "y": 9
            },
            "id": 7,
            "links": [ ],
            "options": {
               "colorMode": "background",
               "graphMode": "gauge",
               "justifyMode": "auto",
               "orientation": "vertical",
               "reduceOptions": {
                  "calcs": [
                     "lastNotNull"
                  ],
                  "fields": "",
                  "values": false
               },
               "textMode": "auto"
            },
            "pluginVersion": "7",
            "stableId": "node-memory-usage-gauge",
            "targets": [
               {
                  "expr": "100 -\n(\n  avg(node_memory_MemAvailable_bytes{instance=\"$instance\"}) /\n  avg(node_memory_MemTotal_bytes{instance=\"$instance\"})\n  * 100\n)\n",
                  "format": "time_series",
                  "instant": true,
                  "interval": "1m",
                  "intervalFactor": 1,
                  "legendFormat": "",
                  "refId": "A"
               }
            ],
            "title": "Memory Usage",
            "transformations": [ ],
            "transparent": false,
            "type": "stat"
         },
         {
            "collapse": false,
            "collapsed": false,
            "gridPos": {
               "h": 1,
               "w": 24,
               "x": 0,
               "y": 16
            },
            "id": 8,
            "panels": [ ],
            "repeat": null,
            "repeatIteration": null,
            "repeatRowId": null,
            "showTitle": true,
            "title": "Disk",
            "titleSize": "h6",
            "type": "row"
         },
         {
            "aliasColors": { },
            "bars": false,
            "dashLength": 10,
            "dashes": false,
            "datasource": "$PROMETHEUS_DS",
            "decimals": 0,
            "description": "",
            "fill": 0,
            "fillGradient": 0,
            "gridPos": {
               "h": 7,
               "w": 12,
               "x": 0,
               "y": 17
            },
            "id": 9,
            "legend": {
               "alignAsTable": true,
               "avg": true,
               "current": true,
               "hideEmpty": true,
               "max": true,
               "min": true,
               "rightSide": false,
               "show": true,
               "sideWidth": null,
               "total": false,
               "values": true
            },
            "lines": true,
            "linewidth": 2,
            "links": [ ],
            "nullPointMode": "null",
            "percentage": false,
            "pointradius": 5,
            "points": false,
            "renderer": "flot",
            "repeat": null,
            "seriesOverrides": [ ],
            "spaceLength": 10,
            "stableId": "node-disk-io",
            "stack": false,
            "steppedLine": false,
            "targets": [
               {
                  "expr": "rate(node_disk_read_bytes_total{instance=\"$instance\", device=~\"(/dev/)?(mmcblk.p.+|nvme.+|rbd.+|sd.+|vd.+|xvd.+|dm-.+|md.+|dasd.+)\"}[$__rate_interval])",
                  "format": "time_series",
                  "interval": "1m",
                  "intervalFactor": 1,
                  "legendFormat": "{{device}} read",
                  "refId": "A"
               },
               {
                  "expr": "rate(node_disk_written_bytes_total{instance=\"$instance\", device=~\"(/dev/)?(mmcblk.p.+|nvme.+|rbd.+|sd.+|vd.+|xvd.+|dm-.+|md.+|dasd.+)\"}[$__rate_interval])",
                  "format": "time_series",
                  "interval": "1m",
                  "intervalFactor": 1,
                  "legendFormat": "{{device}} written",
                  "refId": "B"
               },
               {
                  "expr": "rate(node_disk_io_time_seconds_total{instance=\"$instance\", device=~\"(/dev/)?(mmcblk.p.+|nvme.+|rbd.+|sd.+|vd.+|xvd.+|dm-.+|md.+|dasd.+)\"}[$__rate_interval])",
                  "format": "time_series",
                  "interval": "1m",
                  "intervalFactor": 1,
                  "legendFormat": "{{device}} io time",
                  "refId": "C"
               }
            ],
            "thresholds": [ ],
            "timeFrom": null,
            "timeShift": null,
            "title": "Disk I/O",
            "tooltip": {
               "shared": true,
               "sort": 2,
               "value_type": "individual"
            },
            "type": "graph",
            "xaxis": {
               "buckets": null,
               "mode": "time",
               "name": null,
               "show": true,
               "values": [ ]
            },
            "yaxes": [
               {
                  "format": "Bps",
                  "label": "",
                  "logBase": 1,
                  "max": null,
                  "min": 0,
                  "show": true
               },
               {
                  "format": "short",
                  "label": null,
                  "logBase": 1,
                  "max": 1,
                  "min": 0,
                  "show": false
               }
            ]
         },
         {
            "aliasColors": { },
            "bars": false,
            "dashLength": 10,
            "dashes": false,
            "datasource": "$PROMETHEUS_DS",
            "decimals": 1,
            "description": "Disk space usage per mount point",
            "fill": 0,
            "fillGradient": 0,
            "gridPos": {
               "h": 7,
               "w": 12,
               "x": 12,
               "y": 17
            },
            "id": 10,
            "legend": {
               "alignAsTable": true,
               "avg": true,
               "current": true,
               "hideEmpty": true,
               "max": true,
               "min": true,
               "rightSide": false,
               "show": true,
               "sideWidth": null,
               "total": false,
               "values": true
            },
            "lines": true,
            "linewidth": 2,
            "links": [ ],
            "nullPointMode": "null",
            "percentage": false,
            "pointradius": 5,
            "points": false,
            "renderer": "flot",
            "repeat": null,
            "seriesOverrides": [ ],
            "spaceLength": 10,
            "stableId": "node-disk-space-usage",
            "stack": false,
            "steppedLine": false,
            "targets": [
               {
                  "expr": "max by (mountpoint) (\n  node_filesystem_size_bytes{instance=\"$instance\", fstype!=\"\", mountpoint!=\"\"} -\n  node_filesystem_avail_bytes{instance=\"$instance\", fstype!=\"\", mountpoint!=\"\"}\n)\n/\nmax by (mountpoint) (\n  node_filesystem_size_bytes{instance=\"$instance\", fstype!=\"\", mountpoint!=\"\"}\n)\n",
                  "format": "time_series",
                  "interval": "1m",
                  "intervalFactor": 1,
                  "legendFormat": "{{mountpoint}}",
                  "refId": "A"
               }
            ],
            "thresholds": [ ],
            "timeFrom": null,
            "timeShift": null,
            "title": "Disk Space Usage",
            "tooltip": {
               "shared": true,
               "sort": 2,
               "value_type": "individual"
            },
            "type": "graph",
            "xaxis": {
               "buckets": null,
               "mode": "time",
               "name": null,
               "show": true,
               "values": [ ]
            },
            "yaxes": [
               {
                  "format": "percentunit",
                  "label": "",
                  "logBase": 1,
                  "max": 1,
                  "min": 0,
                  "show": true
               },
               {
                  "format": "short",
                  "label": null,
                  "logBase": 1,
                  "max": 1,
                  "min": 0,
                  "show": false
               }
            ]
         },
         {
            "collapse": false,
            "collapsed": false,
            "gridPos": {
               "h": 1,
               "w": 24,
               "x": 0,
               "y": 24
            },
            "id": 11,
            "panels": [ ],
            "repeat": null,
            "repeatIteration": null,
            "repeatRowId": null,
            "showTitle": true,
            "title": "Network",
            "titleSize": "h6",
            "type": "row"
         },
         {
            "aliasColors": { },
            "bars": false,
            "dashLength": 10,
            "dashes": false,
            "datasource": "$PROMETHEUS_DS",
            "decimals": 0,
            "description": "Network received (bits/s)",
            "fill": 0,
            "fillGradient": 0,
            "gridPos": {
               "h": 7,
               "w": 12,
               "x": 0,
               "y": 25
            },
            "id": 12,
            "legend": {
               "alignAsTable": true,
               "avg": true,
               "current": true,
               "hideEmpty": true,
               "max": true,
               "min": true,
               "rightSide": false,
               "show": true,
               "sideWidth": null,
               "total": false,
               "values": true
            },
            "lines": true,
            "linewidth": 2,
            "links": [ ],
            "nullPointMode": "null",
            "percentage": false,
            "pointradius": 5,
            "points": false,
            "renderer": "flot",
            "repeat": null,
            "seriesOverrides": [ ],
            "spaceLength": 10,
            "stableId": "node-network-received",
            "stack": false,
            "steppedLine": false,
            "targets": [
               {
                  "expr": "rate(node_network_receive_bytes_total{instance=\"$instance\", device!~\"lo|docker\"}[$__rate_interval]) * 8",
                  "format": "time_series",
                  "interval": "1m",
                  "intervalFactor": 1,
                  "legendFormat": "{{device}}",
                  "refId": "A"
               }
            ],
            "thresholds": [ ],
            "timeFrom": null,
            "timeShift": null,
            "title": "Network Received",
            "tooltip": {
               "shared": true,
               "sort": 2,
               "value_type": "individual"
            },
            "type": "graph",
            "xaxis": {
               "buckets": null,
               "mode": "time",
               "name": null,
               "show": true,
               "values": [ ]
            },
            "yaxes": [
               {
                  "format": "bps",
                  "label": "",
                  "logBase": 1,
                  "max": null,
                  "min": 0,
                  "show": true
               },
               {
                  "format": "short",
                  "label": null,
                  "logBase": 1,
                  "max": 1,
                  "min": 0,
                  "show": false
               }
            ]
         },
         {
            "aliasColors": { },
            "bars": false,
            "dashLength": 10,
            "dashes": false,
            "datasource": "$PROMETHEUS_DS",
            "decimals": 0,
            "description": "Network transmitted (bits/s)",
            "fill": 0,
            "fillGradient": 0,
            "gridPos": {
               "h": 7,
               "w": 12,
               "x": 12,
               "y": 25
            },
            "id": 13,
            "legend": {
               "alignAsTable": true,
               "avg": true,
               "current": true,
               "hideEmpty": true,
               "max": true,
               "min": true,
               "rightSide": false,
               "show": true,
               "sideWidth": null,
               "total": false,
               "values": true
            },
            "lines": true,
            "linewidth": 2,
            "links": [ ],
            "nullPointMode": "null",
            "percentage": false,
            "pointradius": 5,
            "points": false,
            "renderer": "flot",
            "repeat": null,
            "seriesOverrides": [ ],
            "spaceLength": 10,
            "stableId": "node-network-transmitted",
            "stack": false,
            "steppedLine": false,
            "targets": [
               {
                  "expr": "rate(node_network_transmit_bytes_total{instance=\"$instance\", device!~\"lo|docker\"}[$__rate_interval]) * 8",
                  "format": "time_series",
                  "interval": "1m",
                  "intervalFactor": 1,
                  "legendFormat": "{{device}}",
                  "refId": "A"
               }
            ],
            "thresholds": [ ],
            "timeFrom": null,
            "timeShift": null,
            "title": "Network Transmitted",
            "tooltip": {
               "shared": true,
               "sort": 2,
               "value_type": "individual"
            },
            "type": "graph",
            "xaxis": {
               "buckets": null,
               "mode": "time",
               "name": null,
               "show": true,
               "values": [ ]
            },
            "yaxes": [
               {
                  "format": "bps",
                  "label": "",
                  "logBase": 1,
                  "max": null,
                  "min": 0,
                  "show": true
               },
               {
                  "format": "short",
                  "label": null,
                  "logBase": 1,
                  "max": 1,
                  "min": 0,
                  "show": false
               }
            ]
         }
      ],
      "refresh": "",
      "rows": [ ],
      "schemaVersion": 16,
      "style": "light",
      "tags": [
         "hosted-runners",
         "dedicated"
      ],
      "templating": {
         "list": [
            {
               "current": {
                  "text": "Global",
                  "value": "Global"
               },
               "hide": 0,
               "label": null,
               "name": "PROMETHEUS_DS",
               "options": [ ],
               "query": "prometheus",
               "refresh": 1,
               "regex": "",
               "type": "datasource"
            },
            {
               "allValue": null,
               "current": {
                  "text": "All",
                  "value": "All"
               },
               "datasource": "$PROMETHEUS_DS",
               "hide": 0,
               "includeAll": false,
               "label": null,
               "multi": false,
               "name": "shard",
               "options": [ ],
               "query": "label_values(gitlab_runner_version_info,shard)\n",
               "refresh": 2,
               "regex": "",
               "sort": true,
               "tagValuesQuery": "",
               "tags": [ ],
               "tagsQuery": "",
               "type": "query",
               "useTags": false
            },
            {
               "includeAll": false,
               "name": "service",
               "query": "label_values(node_uname_info{type=\"hosted-runners\", shard=\"$shard\"},service)",
               "refresh": 1,
               "type": "query"
            },
            {
               "label": "Instance",
               "name": "instance",
               "query": "label_values(node_uname_info{type=\"hosted-runners\", service=\"$service\", shard=\"$shard\"},instance)",
               "refresh": 2,
               "type": "query"
            }
         ]
      },
      "time": {
         "from": "now-6h/m",
         "to": "now/m"
      },
      "timepicker": {
         "refresh_intervals": [
            "1m",
            "5m",
            "10m",
            "15m",
            "30m"
         ],
         "time_options": [
            "5m",
            "15m",
            "1h",
            "6h",
            "12h",
            "24h",
            "2d",
            "7d",
            "30d"
         ]
      },
      "timezone": "utc",
      "title": "Hosted Runners Nodes",
      "version": 0
   }